Week 06 Problem Set: Traffic Fatalities
…
df_state <- read_csv(here("data", "fars-persons-killed-by-state-and-age-2023.csv"))

Rows: 51 Columns: 14
── Column specification ────────────────────────────────────────────────────────
Delimiter: ","
chr  (1): State
dbl (13): < 5, 5 -- 9, 10 -- 14, 15 -- 20, 21 -- 24, 25 -- 34, 35 -- 44, 45 ...

ℹ Use `spec()` to retrieve the full column specification for this data.
ℹ Specify the column types or set `show_col_types = FALSE` to quiet this message.

df_state

# A tibble: 51 × 14
   State   `< 5` `5 -- 9` `10 -- 14` `15 -- 20` `21 -- 24` `25 -- 34` `35 -- 44`
   <chr>   <dbl>    <dbl>      <dbl>      <dbl>      <dbl>      <dbl>      <dbl>
 1 Alabama     7        4         11         88         57        199        161
 2 Alaska      1        0          0          3          7         10         12
 3 Arizona     5        6         25        104         99        245        205
 4 Arkans…     6        3         11         50         50         96         95
 5 Califo…    25       30         33        326        358        860        658
 6 Colora…     3        3         11         85         54        146        113
 7 Connec…     3        0          2         22         39         58         59
 8 Delawa…     4        1          0         10         11         32         19
 9 Distri…     0        0          0          2          6         13          6
10 Florida    31       29         34        268        218        620        505
# ℹ 41 more rows
# ℹ 6 more variables: `45 -- 54` <dbl>, `55 -- 64` <dbl>, `65 -- 74` <dbl>,
#   `> 75` <dbl>, Unknown <dbl>, Total <dbl>
…
B. Clean the age column to remove white space in the age categories and replace the -- with -. Also make sure < and > do not have any whitespace before or after them.

d <- d |> 
  mutate(age = str_trim(age) |> 
           str_remove_all("\\s") |> 
           str_replace_all("--", "-")) 

Task 2: Counting

A. Filter the data to show the count by state for ages five to nine

d |> 
  filter(age == '5-9')

# A tibble: 51 × 4
   state                age   count total
   <chr>                <chr> <dbl> <dbl>
 1 Alabama              5-9       4   974
 2 Alaska               5-9       0    60
 3 Arizona              5-9       6  1304
 4 Arkansas             5-9       3   596
 5 California           5-9      30  4061
 6 Colorado             5-9       3   720
 7 Connecticut          5-9       0   308
 8 Delaware             5-9       1   135
 9 District of Columbia 5-9       0    44
10 Florida              5-9      29  3396
# ℹ 41 more rows
…
df_daily <- read_csv(here("data", "fars0-17daily.csv"))

Rows: 388 Columns: 12
── Column specification ────────────────────────────────────────────────────────
Delimiter: ","
chr  (2): month, day
dbl (10): 2009, 2010, 2011, 2012, 2013, 2014, 2015, 2016, 2017, 2018

ℹ Use `spec()` to retrieve the full column specification for this data.
ℹ Specify the column types or set `show_col_types = FALSE` to quiet this message.

df_daily

# A tibble: 388 × 12
   month   day   `2009` `2010` `2011` `2012` `2013` `2014` `2015` `2016` `2017`
   <chr>   <chr>  <dbl>  <dbl>  <dbl>  <dbl>  <dbl>  <dbl>  <dbl>  <dbl>  <dbl>
 1 January 1          1      2      0      2      1      1      3      2      0
 2 <NA>    2          1      0      0      1      0      0      1      0      0
 3 <NA>    3          0      0      0      1      2      0      0      2      1
 4 <NA>    4          0      0      1      4      1      1      2      1      0
 5 <NA>    5          0      2      1      0      0      0      3      0      0
 6 <NA>    6          1      0      0      4      0      1      0      0      1
 7 <NA>    7          3      0      0      2      1      0      2      0      1
 8 <NA>    8          1      2      0      0      1      1      2      0      0
 9 <NA>    9          4      0      0      0      1      0      3      0      1
10 <NA>    10         1      0      0      1      2      2      0      0      0
# ℹ 378 more rows
# ℹ 1 more variable: `2018` <dbl>
…
