Week 05 Problem Set: Dogs of New York
…
library(tidyverse)
library(tidytext)
library(ggrepel)

Dogs of New York

This data comes from New York City’s Open Data initiative.

We load the data as a package. If you get a message saying there’s no such package, then run this line of code at the console once: remotes::install_github("kjhealy/nycdogs"). Then it should be available.

library(nycdogs)

nyc_license

# A tibble: 493,072 × 9
   animal_name animal_gender animal_birth_year breed_rc         borough zip_code
   <chr>       <chr>                     <dbl> <chr>            <chr>      <int>
 1 Paige       F                          2014 Pit Bull (or Mi… Manhat…    10035
 2 Yogi        M                          2010 Boxer            Bronx      10465
 3 Ali         M                          2014 Basenji          Manhat…    10013
 4 Queen       F                          2013 Akita Crossbreed Manhat…    10013
 5 Lola        F                          2009 Maltese          Manhat…    10028
 6 Ian         M                          2006 Unknown          Manhat…    10013
 7 Buddy       M                          2008 Unknown          Manhat…    10025
 8 Chewbacca   F                          2012 Labrador (or Cr… Manhat…    10013
 9 Heidi-Bo    F                          2007 Dachshund Smoot… Brookl…    11215
10 Massimo     M                          2009 Bull Dog, French Brookl…    11201
# ℹ 493,062 more rows
# ℹ 3 more variables: license_issued_date <date>, license_expired_date <date>,
#   extract_year <dbl>
…
# A tibble: 4 × 2
  extract_year      n
         <dbl>  <int>
1         2016 112719
2         2017 115637
3         2018 117371
4           NA 147345

How many distinct dog breeds are there in the data?

nyc_license |> 
  distinct(breed_rc)

# A tibble: 327 × 1
   breed_rc                
   <chr>                   
 1 Pit Bull (or Mix)       
 2 Boxer                   
 3 Basenji                 
 4 Akita Crossbreed        
 5 Maltese                 
 6 Unknown                 
 7 Labrador (or Crossbreed)
 8 Dachshund Smooth Coat   
 9 Bull Dog, French        
10 Miniature Pinscher      
# ℹ 317 more rows
…
Across boroughs, the ratio of male to female dogs stays fairly consistent.

Here are the first ten rows of the data again:

nyc_license

# A tibble: 493,072 × 9
   animal_name animal_gender animal_birth_year breed_rc         borough zip_code
   <chr>       <chr>                     <dbl> <chr>            <chr>      <int>
 1 Paige       F                          2014 Pit Bull (or Mi… Manhat…    10035
 2 Yogi        M                          2010 Boxer            Bronx      10465
 3 Ali         M                          2014 Basenji          Manhat…    10013
 4 Queen       F                          2013 Akita Crossbreed Manhat…    10013
 5 Lola        F                          2009 Maltese          Manhat…    10028
 6 Ian         M                          2006 Unknown          Manhat…    10013
 7 Buddy       M                          2008 Unknown          Manhat…    10025
 8 Chewbacca   F                          2012 Labrador (or Cr… Manhat…    10013
 9 Heidi-Bo    F                          2007 Dachshund Smoot… Brookl…    11215
10 Massimo     M                          2009 Bull Dog, French Brookl…    11201
# ℹ 493,062 more rows
# ℹ 3 more variables: license_issued_date <date>, license_expired_date <date>,
#   extract_year <dbl>
…
nyc_license |> 
  group_by(zip_code) |> 
  filter(zip_code %in% nyc_zips$zip_code) |> 
  tally()

# A tibble: 203 × 2
   zip_code     n
      <int> <int>
 1    10001  3727
 2    10002  4661
 3    10003  5868
 4    10004   611
 5    10005  1295
 6    10006   547
 7    10007   962
 8    10009  8190
 9    10010  4474
10    10011  8622
# ℹ 193 more rows
…
